<svg width="330" height="481" viewBox="0 0 330 481" fill="none" xmlns="http://www.w3.org/2000/svg">
<path fill-rule="evenodd" clip-rule="evenodd" d="M277.5 0H52.5C23.5051 0 0 23.5051 0 52.5V245.5V428.5C0 457.495 23.5051 481 52.5 481C81.4949 481 105 457.495 105 428.5V298H171.5C200.495 298 224 274.495 224 245.5C224 216.505 200.495 193 171.5 193H105V105H277.5C306.495 105 330 81.4949 330 52.5C330 23.5051 306.495 0 277.5 0Z" fill="#6359CF"/>
<mask id="mask0_0_807" style="mask-type:alpha" maskUnits="userSpaceOnUse" x="0" y="0" width="330" height="481">
<path fill-rule="evenodd" clip-rule="evenodd" d="M277.5 0H52.5C23.5051 0 0 23.5051 0 52.5V245.5V428.5C0 457.495 23.5051 481 52.5 481C81.4949 481 105 457.495 105 428.5V298H171.5C200.495 298 224 274.495 224 245.5C224 216.505 200.495 193 171.5 193H105V105H277.5C306.495 105 330 81.4949 330 52.5C330 23.5051 306.495 0 277.5 0Z" fill="white"/>
</mask>
<g mask="url(#mask0_0_807)">
<rect x="409.51" y="-150.463" width="383" height="348" transform="rotate(70 409.51 -150.463)" fill="#FFE300"/>
<rect x="55.1846" y="290.319" width="383" height="348" transform="rotate(49 55.1846 290.319)" fill="#F06119"/>
<rect x="-130.333" y="-108.06" width="383" height="348" transform="rotate(56 -130.333 -108.06)" fill="#23C54F"/>
</g>
</svg>
